-0.1546 -0.008708 -0.9252
-0.155 -0.008364 -0.9256
-0.1553 -0.00691 -0.9278
-0.1557 -0.004055 -0.9323
-0.1557 -0.004055 -0.9323
-0.1555 0.001401 -0.9409
-0.1508 0.01349 -0.953
-0.1448 0.02189 -0.9666
-0.1421 0.02168 -0.9767
-0.1421 0.02168 -0.9767
-0.2145 -0.3093 -1.095
-0.2177 -0.3109 -1.103
-0.1763 -0.005827 -1.087
-0.1546 -0.01301 -1.056
-0.1469 0.01407 -1.064
-0.1469 0.01407 -1.064
-0.1287 0.03283 -1.089
-0.1126 0.04363 -1.12
-0.09705 0.04836 -1.13
-0.09566 0.04731 -1.168
-0.1023 0.03612 -1.208
-0.1023 0.03612 -1.208
-0.1008 0.03036 -1.221
-0.08063 0.027 -1.243
-0.08578 0.01585 -1.277
-0.08338 0.01362 -1.29
-0.0803 0.01035 -1.309
-0.0803 0.01035 -1.309
-0.07661 0.007923 -1.324
-0.07132 0.006881 -1.34
-0.06613 0.004703 -1.355
-0.06613 0.004703 -1.355
-0.06046 0.003298 -1.371
-0.05503 0.0007216 -1.383
-0.0494 -0.002818 -1.395
-0.0447 -0.006134 -1.404
-0.0447 -0.006134 -1.404
-0.03902 -0.008064 -1.417
-0.03518 -0.00962 -1.424
-0.03059 -0.01051 -1.433
-0.0274 -0.01199 -1.44
-0.0274 -0.01199 -1.44
-0.02453 -0.01367 -1.446
-0.02169 -0.01521 -1.451
-0.01913 -0.01667 -1.455
-0.01652 -0.01873 -1.461
-0.01652 -0.01873 -1.461
-0.0144 -0.01989 -1.466
-0.01262 -0.021 -1.47
-0.01069 -0.02179 -1.473
-0.009048 -0.02252 -1.476
-0.007894 -0.02311 -1.479
-0.007894 -0.02311 -1.479
-0.007048 -0.02399 -1.481
-0.005756 -0.02498 -1.483
-0.004844 -0.02552 -1.485
-0.004844 -0.02552 -1.485
-0.004319 -0.02577 -1.485
-0.003982 -0.02597 -1.486
-0.003601 -0.02608 -1.486
-0.003261 -0.02622 -1.486
-0.00291 -0.02627 -1.485
-0.002476 -0.02614 -1.485
-0.002476 -0.02614 -1.485
-0.002079 -0.02583 -1.482
-0.001836 -0.02515 -1.479
-0.001615 -0.02432 -1.475
-0.001874 -0.0236 -1.469
-0.001794 -0.02155 -1.461
-0.001649 -0.02042 -1.451
-0.00227 -0.01882 -1.44
-0.002693 -0.01635 -1.428
-0.003352 -0.01511 -1.412
-0.004625 -0.01458 -1.394
-0.006182 -0.01394 -1.379
-0.007739 -0.01188 -1.363
-0.006964 -0.009379 -1.353
0.006264 -0.009584 -1.335
0.009425 -2.185E-05 -1.324
0.009425 -2.185E-05 -1.324
0.009829 0.00178 -1.315
-0.01253 0.006301 -1.3
-0.02169 0.004097 -1.293
-0.02169 0.004097 -1.293
-0.02554 0.003019 -1.29
-0.02792 0.002871 -1.288
-0.03012 0.003144 -1.286
-0.03194 0.003743 -1.284
-0.03402 0.004614 -1.283
-0.03622 0.005803 -1.281
-0.03831 0.007193 -1.278
-0.03942 0.008386 -1.277
-0.04091 0.009635 -1.274
-0.04192 0.01095 -1.271
-0.04363 0.01236 -1.266
-0.04507 0.01357 -1.261
-0.04618 0.01449 -1.257
-0.0467 0.01585 -1.252
-0.04654 0.01809 -1.246
-0.04365 0.02254 -1.233
-0.04236 0.02591 -1.223
-0.03872 0.03014 -1.207
-0.03872 0.03014 -1.207
-0.03727 0.03232 -1.197
-0.02737 0.0362 -1.176
-0.04299 0.03535 -1.147
-0.04935 0.03012 -1.139
-0.05778 0.0275 -1.127
-0.06295 0.02259 -1.111
-0.06495 0.01203 -1.099
-0.06479 0.003633 -1.088
-0.07295 -0.01377 -1.079
-0.06947 0.01126 -1.053
-0.08068 0.0156 -1.035
-0.08989 0.0156 -1.022
-0.09696 0.0151 -1.011
-0.1038 0.0152 -1
-0.1094 0.01513 -0.9918
-0.1141 0.01535 -0.9843
-0.1184 0.01637 -0.9773
-0.1228 0.01799 -0.9704
-0.1265 0.01904 -0.9648
-0.1301 0.02018 -0.96
-0.1301 0.02018 -0.96
-0.1338 0.021 -0.9547
-0.1372 0.02179 -0.9496
-0.1372 0.02179 -0.9496
-0.1388 0.02213 -0.9468
-0.1399 0.02248 -0.9448
-0.1407 0.02272 -0.9431
-0.1413 0.02319 -0.9416
-0.1416 0.02346 -0.9408
-0.1417 0.0238 -0.9404
-0.1416 0.02406 -0.9401
-0.1415 0.02429 -0.94
-0.1414 0.02464 -0.94
-0.141 0.02501 -0.94
-0.1407 0.02531 -0.9401
-0.14 0.02575 -0.9404
-0.1394 0.0261 -0.9406
-0.1385 0.02662 -0.941
-0.1375 0.027 -0.9414
-0.1364 0.02738 -0.9417
-0.1348 0.02792 -0.9426
-0.1333 0.0286 -0.9435
-0.1315 0.0296 -0.9443
-0.1302 0.03044 -0.9452
-0.129 0.03136 -0.9459
-0.1278 0.03219 -0.9465
-0.1272 0.03264 -0.9469
-0.1265 0.03301 -0.9473
-0.1261 0.03339 -0.9476
-0.1255 0.03378 -0.9478
-0.1248 0.03366 -0.9479
-0.1244 0.03435 -0.9481
-0.1241 0.03506 -0.9481
-0.1237 0.03589 -0.948
-0.1234 0.03682 -0.9478
-0.1228 0.03881 -0.9468
-0.1228 0.03881 -0.9468
-0.1226 0.03974 -0.9463
-0.1223 0.0406 -0.9456
-0.122 0.04144 -0.9446
-0.1216 0.0422 -0.9438
-0.121 0.043 -0.9429
-0.1203 0.0438 -0.9419
-0.1184 0.04531 -0.9402
-0.1178 0.04577 -0.9397
-0.1172 0.04628 -0.939
-0.1166 0.04664 -0.9384
-0.1161 0.04699 -0.9379
-0.1156 0.04719 -0.9376
