-0.08736 -0.3248 -1.054
-0.08764 -0.3241 -1.055
-0.08799 -0.3226 -1.057
-0.088 -0.3217 -1.057
-0.088 -0.3217 -1.057
-0.08623 -0.3191 -1.06
-0.08554 -0.3111 -1.066
-0.08544 -0.3068 -1.07
-0.0797 -0.2698 -1.083
-0.0797 -0.2698 -1.083
-0.1639 -0.5549 -1.19
-0.1772 -0.5559 -1.202
-0.1566 -0.3594 -1.189
-0.1036 -0.3443 -1.181
-0.07613 -0.3315 -1.172
-0.07613 -0.3315 -1.172
-0.04641 -0.3127 -1.173
-0.0291 -0.3009 -1.183
-0.001594 -0.2838 -1.212
0.001833 -0.2937 -1.229
-0.005915 -0.2995 -1.24
-0.005915 -0.2995 -1.24
-0.008691 -0.3292 -1.271
-0.01794 -0.3374 -1.288
-0.02329 -0.342 -1.304
-0.02522 -0.3455 -1.318
-0.02872 -0.3486 -1.339
-0.02872 -0.3486 -1.339
-0.02771 -0.3503 -1.347
-0.02496 -0.3545 -1.36
-0.02205 -0.3573 -1.37
-0.02205 -0.3573 -1.37
-0.02129 -0.3574 -1.371
-0.01152 -0.3624 -1.395
-0.009933 -0.3642 -1.398
-0.01034 -0.3661 -1.398
-0.01034 -0.3661 -1.398
-0.02008 -0.3708 -1.391
-0.01914 -0.3725 -1.392
-0.01288 -0.3754 -1.4
-0.01147 -0.3773 -1.405
-0.01147 -0.3773 -1.405
-0.01174 -0.3776 -1.405
-0.01175 -0.3781 -1.405
-0.01171 -0.3812 -1.411
-0.01172 -0.3832 -1.415
-0.01172 -0.3832 -1.415
-0.01132 -0.3849 -1.419
-0.0122 -0.3857 -1.42
-0.009723 -0.3876 -1.425
-0.009253 -0.3888 -1.428
-0.008192 -0.3898 -1.431
-0.008192 -0.3898 -1.431
-0.008766 -0.3901 -1.432
-0.007401 -0.3907 -1.433
-0.007577 -0.3909 -1.434
-0.007577 -0.3909 -1.434
-0.006747 -0.3915 -1.434
-0.007009 -0.3917 -1.435
-0.007354 -0.3918 -1.435
-0.007314 -0.3919 -1.435
-0.007215 -0.3919 -1.433
-0.007293 -0.3919 -1.433
-0.007293 -0.3919 -1.433
-0.008394 -0.3919 -1.432
-0.008539 -0.3918 -1.432
-0.008682 -0.3917 -1.432
-0.008615 -0.3915 -1.432
-0.007521 -0.3911 -1.431
-0.008589 -0.3906 -1.429
-0.01146 -0.3869 -1.413
-0.01237 -0.3867 -1.412
-0.01459 -0.3854 -1.404
-0.01627 -0.384 -1.395
-0.01349 -0.383 -1.386
-0.01305 -0.3819 -1.38
-0.01377 -0.3819 -1.375
-0.01632 -0.381 -1.365
-0.02085 -0.372 -1.35
-0.02085 -0.372 -1.35
-0.02127 -0.3687 -1.345
-0.02302 -0.3687 -1.331
-0.02656 -0.3687 -1.325
-0.02656 -0.3687 -1.325
-0.02674 -0.3682 -1.322
-0.03477 -0.3671 -1.312
-0.03807 -0.3654 -1.306
-0.04218 -0.363 -1.299
-0.04541 -0.3603 -1.292
-0.04764 -0.3585 -1.286
-0.04932 -0.3573 -1.282
-0.05169 -0.3547 -1.273
-0.05435 -0.3528 -1.267
-0.05605 -0.3513 -1.26
-0.0526 -0.3503 -1.254
-0.05089 -0.3499 -1.25
-0.04612 -0.3489 -1.245
-0.04208 -0.3489 -1.245
-0.03918 -0.3487 -1.244
-0.03746 -0.3467 -1.226
-0.03271 -0.341 -1.216
-0.02713 -0.3297 -1.206
-0.02713 -0.3297 -1.206
-0.02474 -0.3232 -1.197
-0.02219 -0.3193 -1.188
-0.006905 -0.3151 -1.171
-0.01439 -0.3243 -1.163
-0.03256 -0.3453 -1.152
-0.04826 -0.3552 -1.142
-0.05306 -0.3579 -1.138
-0.05854 -0.359 -1.135
-0.1472 -0.3688 -1.146
-0.08285 -0.3333 -1.101
-0.0827 -0.3328 -1.101
-0.08333 -0.3309 -1.098
-0.08564 -0.3257 -1.092
-0.08913 -0.3177 -1.083
-0.09011 -0.318 -1.081
-0.09065 -0.318 -1.08
-0.09098 -0.3182 -1.078
-0.09141 -0.3184 -1.077
-0.09184 -0.3184 -1.076
-0.09228 -0.3184 -1.074
-0.09228 -0.3184 -1.074
-0.09276 -0.3185 -1.073
-0.09344 -0.3182 -1.071
-0.09344 -0.3182 -1.071
-0.09373 -0.3181 -1.07
-0.09475 -0.3173 -1.067
-0.09539 -0.3167 -1.065
-0.09578 -0.3162 -1.064
-0.09602 -0.3159 -1.063
-0.09625 -0.3156 -1.063
-0.09638 -0.3153 -1.062
-0.09647 -0.315 -1.062
-0.09658 -0.3148 -1.061
-0.09712 -0.3134 -1.059
-0.09734 -0.3125 -1.059
-0.09748 -0.3119 -1.058
-0.09764 -0.3116 -1.058
-0.09772 -0.3113 -1.057
-0.09814 -0.3098 -1.056
-0.09671 -0.3069 -1.048
-0.09654 -0.3069 -1.047
-0.09635 -0.307 -1.046
-0.1758 -0.3025 -0.974
-0.1761 -0.3024 -0.9741
-0.1766 -0.3022 -0.9742
-0.178 -0.3017 -0.9738
-0.1791 -0.3008 -0.9742
-0.1778 -0.3 -0.9733
-0.1777 -0.2994 -0.9724
-0.1725 -0.2977 -0.969
-0.1693 -0.2965 -0.9664
-0.1674 -0.2956 -0.964
-0.1658 -0.2948 -0.9634
-0.1638 -0.2938 -0.9628
-0.1615 -0.2923 -0.9608
-0.158 -0.2923 -0.9591
-0.158 -0.2923 -0.9591
-0.1564 -0.2916 -0.9568
-0.1546 -0.2911 -0.9541
-0.1535 -0.2904 -0.9526
-0.1523 -0.29 -0.9507
-0.1509 -0.2895 -0.9481
-0.1501 -0.2891 -0.9463
-0.145 -0.2871 -0.9419
-0.1451 -0.2869 -0.9412
-0.1452 -0.2868 -0.9407
-0.1452 -0.2866 -0.9403
-0.1444 -0.2864 -0.9389
-0.1428 -0.2864 -0.938
