279.5 312.8 251.3
278.5 314.1 249.9
276.1 315.4 249.4
280.6 311.9 252.4
280.6 311.9 252.4
286.5 311 252
300.4 308.4 255.3
302.9 308.3 254.4
304.9 310.3 251.6
304.9 310.3 251.6
292.4 318.8 244.8
291.4 320.1 243.6
33.81 159.6 105.8
62.53 177.7 121.4
332.7 119.2 78.84
332.7 119.2 78.84
350.1 123.4 93
321.7 115.9 82.04
333 116.4 79.84
324 121.2 78.76
309.3 123.3 83.9
309.3 123.3 83.9
312.2 131.1 79.11
301.5 139.8 73.51
294.2 136.8 83.17
316.1 147.1 74.02
320 148.1 73.68
320 148.1 73.68
333.6 150.8 75.34
321.7 152.8 72.81
327.9 154.7 73.36
327.9 154.7 73.36
333.5 157.6 73.42
334.2 156.7 72.29
340.1 158.8 73.5
335.7 161.2 72.7
335.7 161.2 72.7
339.6 163.4 73.56
332.6 165.4 71.89
337.4 165.5 72.06
338.9 166.3 72.27
338.9 166.3 72.27
346.2 167 73.7
348.5 167.9 74.14
339 168.2 73.01
339 168.5 72.73
339 168.5 72.73
340 169 72.96
337.8 169.5 72.73
337.9 169.6 72.56
339.2 169.4 72.65
341.6 169 72.97
341.6 169 72.97
342.1 169.1 72.98
343.5 169 73.08
343.8 169 73.16
343.8 169 73.16
343.8 169 73.22
343.6 169 73.23
343.5 169 73.18
343.3 169 72.89
342.4 169.1 72.11
341.8 169.1 70.92
341.8 169.1 70.92
341.6 169.2 69.37
341.4 169.3 68.03
341 169.3 66.74
340.7 169.3 65.9
340.1 169.2 65.28
338.1 169.3 64.71
339.1 170.5 66.04
332.8 170.1 65.07
336.6 169.8 67.04
335.4 168.9 67.24
330.3 168.3 66.49
327 167.1 64.71
330.4 164.1 65.36
321.2 165.1 61.98
313.1 167.1 59.36
313.1 167.1 59.36
309.4 167.3 55.79
327.5 160.6 64.38
327.1 161.1 64.78
327.1 161.1 64.78
327 161.4 65.76
325.2 162.9 65.66
325 163.6 65.78
327.2 164.2 67.11
328.6 164.6 67.61
330.5 164.8 68.14
330.1 165.1 67.71
334.3 164.8 69.03
334.2 165.2 69.72
333.3 165.5 70.6
332.9 165.1 71.09
331 164.8 70.99
325.8 164.5 69.64
321.9 163.1 67.92
314.9 162 65.48
306.7 163.7 62.42
298.5 161.7 61.06
301.3 151.2 66.93
301.3 151.2 66.93
304.4 142.4 69.12
308.9 135.1 71.53
309.4 125.2 72.74
293.2 129.1 69.61
293.9 129.4 75.28
287.5 123.3 83.02
291.6 125.9 82.16
292.3 125.8 82.48
341.7 146 50.14
332 142.2 32.98
320.8 140 36.88
29.74 132.4 43.7
32.25 132.9 75.82
25.03 136 69.48
28.83 138.8 76.4
26.91 139.1 77.15
58.42 141.5 89.84
54.35 141.2 91.28
287.4 122.3 87.95
282.2 116.6 104.7
282.2 116.6 104.7
278.8 109.3 112.9
283.1 321.7 247.1
283.1 321.7 247.1
285.4 319.7 249.4
283.1 325 244.4
282.6 326.9 242.6
296.1 321.3 255
285.7 325.3 247.3
285 325.8 246.1
293 322.4 253.1
286.7 324.7 248.1
294.4 322 253.6
27.15 314.8 261.1
298.9 317 253.4
272.2 344.5 234.8
271.1 47.38 171.7
271.6 86.95 132
294.9 316.1 263.2
285.2 318.4 260.6
281 335.9 227.7
276 19.14 184.6
278.7 79.57 125.5
281.2 93.35 112.5
283.6 100.4 106.1
285.9 105.7 101.3
288.1 109.7 97.9
289.5 112 96.04
287.8 110.8 97.37
286.2 108.6 99.69
282.5 101.8 104.3
281.5 97.63 108.4
278.1 78.98 127.8
277.4 68.98 138.6
277 57.03 151
276.7 52.51 153.9
276.7 52.51 153.9
277.2 23.86 183.1
280.4 353.3 213.3
281.9 348.1 218
283.6 343.4 222.2
284.8 340.9 224.3
285.4 340.5 224.3
283.7 346.7 219
284 345.9 219.6
283.5 347.5 218.3
284.1 345.8 219.8
283.6 347.3 218.5
283.2 349 217.1
